%!PS-Adobe-3.0 EPSF-3.0
%%Creator: cairo 1.14.2 (http://cairographics.org)
%%CreationDate: Sun Mar  5 11:49:28 2017
%%Pages: 1
%%DocumentData: Clean7Bit
%%LanguageLevel: 2
%%BoundingBox: 0 -1 532 880
%%EndComments
%%BeginProlog
save
50 dict begin
/q { gsave } bind def
/Q { grestore } bind def
/cm { 6 array astore concat } bind def
/w { setlinewidth } bind def
/J { setlinecap } bind def
/j { setlinejoin } bind def
/M { setmiterlimit } bind def
/d { setdash } bind def
/m { moveto } bind def
/l { lineto } bind def
/c { curveto } bind def
/h { closepath } bind def
/re { exch dup neg 3 1 roll 5 3 roll moveto 0 rlineto
      0 exch rlineto 0 rlineto closepath } bind def
/S { stroke } bind def
/f { fill } bind def
/f* { eofill } bind def
/n { newpath } bind def
/W { clip } bind def
/W* { eoclip } bind def
/BT { } bind def
/ET { } bind def
/pdfmark where { pop globaldict /?pdfmark /exec load put }
    { globaldict begin /?pdfmark /pop load def /pdfmark
    /cleartomark load def end } ifelse
/BDC { mark 3 1 roll /BDC pdfmark } bind def
/EMC { mark /EMC pdfmark } bind def
/cairo_store_point { /cairo_point_y exch def /cairo_point_x exch def } def
/Tj { show currentpoint cairo_store_point } bind def
/TJ {
  {
    dup
    type /stringtype eq
    { show } { -0.001 mul 0 cairo_font_matrix dtransform rmoveto } ifelse
  } forall
  currentpoint cairo_store_point
} bind def
/cairo_selectfont { cairo_font_matrix aload pop pop pop 0 0 6 array astore
    cairo_font exch selectfont cairo_point_x cairo_point_y moveto } bind def
/Tf { pop /cairo_font exch def /cairo_font_matrix where
      { pop cairo_selectfont } if } bind def
/Td { matrix translate cairo_font_matrix matrix concatmatrix dup
      /cairo_font_matrix exch def dup 4 get exch 5 get cairo_store_point
      /cairo_font where { pop cairo_selectfont } if } bind def
/Tm { 2 copy 8 2 roll 6 array astore /cairo_font_matrix exch def
      cairo_store_point /cairo_font where { pop cairo_selectfont } if } bind def
/g { setgray } bind def
/rg { setrgbcolor } bind def
/d1 { setcachedevice } bind def
%%EndProlog
%%BeginSetup
%%EndSetup
%%Page: 1 1
%%BeginPageSetup
%%PageBoundingBox: 0 -1 532 880
%%EndPageSetup
q 0 -1 532 881 rectclip q
0.133333 0.133333 0.196078 rg
531.125 531.457 m 526.078 535.949 l 528.789 538.402 l 526.465 540.969 296.77
 793.527 248.867 837.273 c 200.277 881.637 143.527 880.051 142.754 879.977
 c 23.297 867.41 4.848 503.391 3.793 480.676 c 0 477.828 l 15.398 468.594
 l 14.84 466.34 14.801 463.812 15.738 461.016 c 19.934 448.414 55.707 443.141
 55.707 443.141 c 62.016 447.344 72.531 453.672 72.531 453.672 c 77.793 
452.613 129.324 462.086 129.324 462.086 c 147.211 472.602 185.07 525.18 
185.07 525.18 c 184.012 518.871 202.945 472.602 202.945 472.602 c 206.102
 467.328 202.945 428.426 202.945 428.426 c 174.559 391.621 192.43 331.656
 192.43 331.656 c 196.637 325.348 197.691 303.266 197.691 303.266 c 204.004
 282.23 195.598 253.84 195.598 253.84 c 187.168 240.16 208.203 227.559 208.203
 227.559 c 211.359 224.387 209.254 205.449 209.254 205.449 c 175.602 162.328
 192.414 119.211 192.414 119.211 c 196.637 103.437 182.953 85.559 182.953
 85.559 c 156.668 66.621 181.914 45.59 181.914 45.59 c 190.316 41.387 198.734
 9.836 198.734 9.836 c 223.98 -12.25 246.07 11.937 246.07 11.937 c 246.07
 11.937 239.754 25.609 257.637 8.781 c 275.523 -8.047 287.074 2.477 287.074
 14.039 c 287.074 25.609 278.672 56.102 278.672 62.426 c 278.672 68.738 
280.766 78.191 280.766 82.406 c 280.766 86.602 275.508 83.457 275.508 88.723
 c 275.508 93.973 282.863 102.383 284.973 108.684 c 287.074 115.004 306.012
 143.394 306.012 143.394 c 322.84 166.543 320.734 177.059 320.734 177.059
 c 319.68 184.426 329.141 198.098 329.141 198.098 c 338.613 214.914 334.414
 226.488 334.414 226.488 c 336.488 237.004 l 343.855 266.445 337.562 365.266
 334.414 380.012 c 331.25 394.73 323.891 439.953 323.891 439.953 c 325.992
 466.242 333.359 527.234 333.359 527.234 c 336.527 520.934 358.602 503.055
 358.602 503.055 c 367.016 494.629 382.773 496.746 382.773 496.746 c 391.199
 491.484 420.648 493.582 420.648 493.582 c 430.109 498.852 476.391 499.894
 476.391 499.894 c 484.816 502.004 487.961 493.582 498.488 495.691 c 509.004
 497.801 509.004 505.168 514.254 504.109 c 519.52 503.051 521.605 509.363
 521.605 509.363 c 521.605 509.363 522.66 515.687 523.73 520.934 c 523.898
 521.863 523.867 522.941 523.742 524.074 c h
272.363 149.723 m 274.48 145.5 273.41 124.48 254.492 110.793 c 235.555 
97.121 228.195 82.406 235.555 76.09 c 242.934 69.777 241.863 35.07 241.863
 35.07 c 225.027 32.953 227.145 64.516 227.145 64.516 c 228.195 71.887 213.473
 97.129 213.473 97.129 c 213.473 97.129 215.426 93.855 216.609 91.875 c 
213.488 97.164 220.824 113.945 220.824 113.945 c 229.246 127.625 238.715
 172.848 238.715 172.848 c 236.602 181.258 243.973 192.82 243.973 192.82
 c 261.848 211.758 254.492 217.019 254.492 217.019 c 263.953 228.574 266.062
 260.144 266.062 260.144 c 283.938 256.988 279.727 245.414 279.727 245.414
 c 279.727 245.414 289.188 244.359 286.035 240.156 c 282.895 235.953 289.188
 211.758 289.188 211.758 c 268.16 197.035 270.258 153.906 272.363 149.723
 c h
470.074 525.148 m 459.555 523.039 420.645 528.301 420.645 528.301 c 403.805
 534.613 383.836 533.559 380.676 539.863 c 377.535 546.176 362.797 564.074
 359.648 566.16 c 356.484 568.269 355.441 581.93 355.441 581.93 c 345.977
 624.004 316.535 618.75 316.535 618.75 c 311.266 624.004 294.426 635.582
 294.426 635.582 c 296.535 640.824 299.695 647.144 299.695 647.144 c 306.008
 655.562 303.895 691.328 303.895 691.328 c 300.742 737.613 264.984 733.387
 264.984 733.387 c 213.453 728.125 245.008 689.219 234.488 683.957 c 223.973
 678.699 241.855 665.027 241.855 661.863 c 241.855 658.719 243.953 638.734
 242.895 635.582 c 241.855 632.418 232.391 622.957 229.238 622.957 c 226.066
 622.957 201.879 607.184 201.879 607.184 c 156.66 608.234 167.168 561.957
 159.812 558.797 c 152.453 555.656 130.363 512.523 123.004 510.414 c 115.645
 508.316 98.816 496.746 90.402 490.441 c 81.988 484.141 77.773 474.66 60.934
 482.023 c 44.117 489.387 26.23 480.961 26.23 480.961 c 26.23 480.961 24.895
 480.301 23.176 479.035 c 12.613 487.297 l 9.066 484.629 l 11.547 528.957
 34.039 863.48 143.113 874.957 c 143.652 875.074 192.859 876.785 245.461
 833.547 c 291.805 795.457 490.879 573.25 521.168 539.379 c 516.996 535.203
 l 515.852 535.937 514.594 536.504 513.191 536.707 c 505.848 537.766 480.598
 527.234 470.074 525.148 c h
470.074 525.148 m f
Q Q
showpage
%%Trailer
end restore
%%EOF
