%!PS-Adobe-3.0 EPSF-3.0
%%Creator: cairo 1.14.2 (http://cairographics.org)
%%CreationDate: Sun Mar  5 11:47:35 2017
%%Pages: 1
%%DocumentData: Clean7Bit
%%LanguageLevel: 2
%%BoundingBox: 0 -1 568 880
%%EndComments
%%BeginProlog
save
50 dict begin
/q { gsave } bind def
/Q { grestore } bind def
/cm { 6 array astore concat } bind def
/w { setlinewidth } bind def
/J { setlinecap } bind def
/j { setlinejoin } bind def
/M { setmiterlimit } bind def
/d { setdash } bind def
/m { moveto } bind def
/l { lineto } bind def
/c { curveto } bind def
/h { closepath } bind def
/re { exch dup neg 3 1 roll 5 3 roll moveto 0 rlineto
      0 exch rlineto 0 rlineto closepath } bind def
/S { stroke } bind def
/f { fill } bind def
/f* { eofill } bind def
/n { newpath } bind def
/W { clip } bind def
/W* { eoclip } bind def
/BT { } bind def
/ET { } bind def
/pdfmark where { pop globaldict /?pdfmark /exec load put }
    { globaldict begin /?pdfmark /pop load def /pdfmark
    /cleartomark load def end } ifelse
/BDC { mark 3 1 roll /BDC pdfmark } bind def
/EMC { mark /EMC pdfmark } bind def
/cairo_store_point { /cairo_point_y exch def /cairo_point_x exch def } def
/Tj { show currentpoint cairo_store_point } bind def
/TJ {
  {
    dup
    type /stringtype eq
    { show } { -0.001 mul 0 cairo_font_matrix dtransform rmoveto } ifelse
  } forall
  currentpoint cairo_store_point
} bind def
/cairo_selectfont { cairo_font_matrix aload pop pop pop 0 0 6 array astore
    cairo_font exch selectfont cairo_point_x cairo_point_y moveto } bind def
/Tf { pop /cairo_font exch def /cairo_font_matrix where
      { pop cairo_selectfont } if } bind def
/Td { matrix translate cairo_font_matrix matrix concatmatrix dup
      /cairo_font_matrix exch def dup 4 get exch 5 get cairo_store_point
      /cairo_font where { pop cairo_selectfont } if } bind def
/Tm { 2 copy 8 2 roll 6 array astore /cairo_font_matrix exch def
      cairo_store_point /cairo_font where { pop cairo_selectfont } if } bind def
/g { setgray } bind def
/rg { setrgbcolor } bind def
/d1 { setcachedevice } bind def
%%EndProlog
%%BeginSetup
%%EndSetup
%%Page: 1 1
%%BeginPageSetup
%%PageBoundingBox: 0 -1 568 880
%%EndPageSetup
q 0 -1 568 881 rectclip q
0.156863 0.152941 0.152941 rg
566.086 540.812 m 565.195 542.75 564 544.351 562.594 545.672 c 560.887 
547.883 558.711 549.738 557.496 550.379 c 554.18 552.152 551.52 555.023 
551.52 555.023 c 546.188 564.562 532.223 566.32 527.137 568.547 c 522.031
 570.773 519.16 574.758 513.836 578.746 c 508.508 582.742 502.75 588.277
 496.762 594.047 c 490.773 599.804 476.145 613.781 469.27 619.539 c 462.398
 625.297 460.188 623.754 455.75 627.746 c 451.309 631.738 446.66 635.726
 446.66 635.726 c 446.66 635.726 446.66 654.566 445.988 661.437 c 445.34
 668.297 446.211 668.972 444.438 673.41 c 442.664 677.847 442.223 677.617
 438.68 681.386 c 435.125 685.148 437.121 685.601 434.695 692.246 c 432.254
 698.894 427.609 699.793 427.609 699.793 c 427.82 708.66 l 435.125 714.633
 l 447.102 727.05 445.773 767.851 445.773 767.851 c 448.434 770.945 447.102
 774.488 448.434 784.468 c 449.762 794.433 449.105 789.351 448.887 804.656
 c 448.645 819.941 440.012 813.945 440.012 813.945 c 440.012 813.945 442.223
 819.941 440.227 830.14 c 438.242 840.32 425.828 851.199 427.82 858.058 
c 429.812 864.937 432.465 866.281 422.492 876.258 c 412.52 886.222 392.125
 873.136 392.125 873.136 c 347.121 884.886 323.184 839.89 323.184 839.89
 c 316.102 841.664 316.977 832.574 315.199 832.359 c 313.422 832.144 305.672
 825.925 301.227 820.371 c 296.809 814.843 298.805 804.863 299.02 797.324
 c 299.234 789.789 299.902 786.457 296.141 780.031 c 292.375 773.605 293.258
 769.625 295.469 762.086 c 297.695 754.539 298.133 760.09 303 749.894 c 
307.887 739.687 299.234 721.082 312.77 734.586 c 326.289 748.113 323.184
 756.988 323.633 757.863 c 324.062 758.761 326.508 759.199 326.508 759.199
 c 337.824 743.898 l 341.586 735.48 352.879 739.687 352.879 739.687 c 357.988
 728.386 l 357.988 728.386 352.008 722.617 340.695 717.289 c 329.391 711.976
 325.406 701.781 322.961 698.91 c 320.527 696.023 320.738 692.48 315.422
 687.597 c 310.098 682.73 299.02 672.972 290.152 666.754 c 281.281 660.554
 262.441 643.035 256.238 637.5 c 250.035 631.961 246.93 624.422 244.043 
618.441 c 241.172 612.445 236.504 599.804 233.852 592.718 c 231.457 586.359
 229.613 577.886 229.266 576.175 c 229.242 576.793 228.547 578.328 223.43
 580.968 c 216.551 584.519 213.898 580.078 213.898 580.078 c 199.25 586.953
 201.48 568.332 201.48 568.332 c 194.164 565.89 197.039 556.359 197.039 
556.359 c 191.941 552.59 194.617 547.492 199.703 540.843 c 204.805 534.191
 209.461 538.855 209.461 538.855 c 209.461 538.855 210.578 541.058 211.672
 541.508 c 212.789 541.949 218.996 537.957 220.988 537.082 c 222.98 536.183
 230.961 533.972 236.504 535.3 c 242.039 536.636 246.93 539.734 251.355 
545.726 c 255.797 551.707 250.914 551.707 254.016 558.355 c 257.133 565.008
 259.566 566.32 263.777 573.207 c 267.992 580.078 277.078 591.828 280.172
 598.254 c 283.281 604.687 285.949 604.457 292.816 608.008 c 299.684 611.562
 317.637 624.422 317.637 624.422 c 317.637 624.422 318.965 609.117 317.863
 602.023 c 316.754 594.922 320.738 595.597 320.301 586.742 c 319.848 577.867
 321.41 579.648 318.527 576.539 c 315.633 573.422 310.312 573.652 307.434
 570.113 c 304.555 566.558 312.758 566.113 313.648 561.461 c 314.539 556.804
 312.539 561.687 307.672 562.574 c 302.777 563.457 307.219 553.258 306.113
 550.14 c 304.996 547.047 304.555 549.925 301.012 545.941 c 297.461 541.949
 296.359 533.312 291.922 526.875 c 287.496 520.457 290.363 521.332 277.734
 499.824 c 265.102 478.336 270.426 467.468 269.535 453.058 c 268.965 443.84
 271.68 437.703 273.801 431.922 c 241.855 429.48 209.746 416.804 178.098
 380.113 c 136.812 332.25 125.449 296.972 117.156 271.211 c 110.832 251.535
 106.242 237.324 91.551 225.593 c 75.551 212.836 47.32 202.992 0 193.656
 c 2.121 182.883 l 51.934 192.715 80.723 202.922 98.395 217.011 c 115.699
 230.816 120.953 247.152 127.617 267.863 c 136.062 294.101 146.566 326.761
 186.402 372.937 c 216.172 407.437 245.922 419.133 276.23 421.101 c 276.738
 412.054 278.195 408.492 278.398 401.855 c 278.625 394.972 276.176 390.547
 273.531 381.461 c 270.855 372.355 271.309 368.601 269.758 364.832 c 268.215
 361.062 268.863 349.086 265.32 342 c 261.773 334.902 264.668 334.242 257.344
 319.379 c 250.023 304.527 257.789 299.648 256.449 296.113 c 255.129 292.558
 247.805 277.269 244.035 272.601 c 240.27 267.945 230.527 249.32 221.875
 240.48 c 213.223 231.605 210.121 214.324 208.121 206.554 c 206.137 198.785
 197.266 183.047 191.281 176.175 c 185.293 169.3 177.754 155.554 173.551
 146.265 c 169.332 136.941 166.672 127.851 165.781 124.976 c 164.898 122.09
 159.363 116.996 154.035 114.109 c 148.727 111.23 143.172 105.465 131.656
 98.371 c 120.121 91.273 120.34 87.066 111.254 87.289 c 102.16 87.511 105.707
 79.746 107.707 71.765 c 109.699 63.793 113.246 61.355 123.887 51.816 c 
134.531 42.304 138.508 38.519 146.727 34.972 c 154.926 31.422 156.246 35.207
 163.344 27.437 c 170.438 19.668 178.867 11.015 178.867 11.015 c 191.281
 -3.153 217.434 0.394 217.434 0.394 c 235.395 3.484 230.289 14.812 224.754
 23.429 c 219.215 32.082 214.562 37.847 215.672 43.836 c 216.77 49.824 220.316
 46.066 220.316 48.058 c 220.316 50.05 221.207 49.379 221.871 53.797 c 222.531
 58.242 220.977 56.472 219.887 60.246 c 218.766 64.019 220.977 61.121 223.43
 70.207 c 225.867 79.308 219.656 68.004 217.66 70.668 c 215.672 73.32 215.219
 73.992 216.336 79.523 c 217.434 85.074 221.871 85.523 224.082 89.945 c 
226.293 94.386 220.098 99.715 221.43 102.804 c 222.75 105.906 226.742 103.914
 231.617 108.582 c 236.504 113.226 228.75 111.457 230.742 119.203 c 232.73
 126.957 233.391 127.195 237.605 134.492 c 241.82 141.812 246.258 143.367
 252.465 150.679 c 258.676 158.008 262.66 171.746 270.855 184.605 c 279.07
 197.465 281.062 194.59 282.621 203.445 c 284.176 212.308 287.934 211.215
 292.363 222.508 c 296.809 233.812 297.031 231.16 303 236.687 c 308.992 
242.238 311.43 236.687 318.316 246.445 c 325.172 256.207 315.422 253.105
 321.859 261.972 c 328.266 270.836 326.277 269.281 326.949 279.703 c 327.609
 290.113 334.93 290.793 338.699 298.324 c 342.465 305.863 338.039 308.527
 342.695 313.851 c 347.344 319.156 345.562 318.718 348 324.715 c 350.457
 330.695 349.555 328.922 357.766 345.988 c 365.969 363.066 369.512 367.715
 369.512 367.715 c 369.512 367.715 372.832 364.386 375.27 361.5 c 377.711
 358.629 388.574 349.754 395.895 342 c 403.203 334.226 404.098 333.133 403.871
 331.812 c 403.18 327.691 404.754 326.925 400.102 319.832 c 395.457 312.738
 393.461 298.773 390.348 290.562 c 387.242 282.367 384.59 276.812 381.266
 266.629 c 377.93 256.418 379.922 248.449 375.051 240.457 c 370.184 232.492
 373.496 220.289 373.727 218.074 c 373.941 215.859 372.176 211.636 365.734
 208.55 c 359.324 205.449 357.102 202.347 357.316 198.14 c 357.547 193.918
 358.867 191.043 358.422 186.148 c 357.988 181.269 352.23 176.859 351.328
 175.082 c 350.453 173.312 348.008 165.992 346.676 161.113 c 345.355 156.23
 343.133 154.687 342.242 147.812 c 341.359 140.941 349.777 131.402 368.195
 130.297 c 386.586 129.175 387.914 134.953 396.559 136.058 c 405.191 137.156
 400.102 136.058 420.043 130.07 c 440.008 124.093 463.066 139.172 463.066
 139.172 c 479.258 153.8 458.402 161.769 451.754 163.988 c 445.105 166.215
 443.773 161.535 443.332 171.308 c 442.891 181.058 423.828 178.179 424.711
 183.945 c 425.605 189.699 416.734 194.566 420.043 196.121 c 423.379 197.679
 426.469 204.539 428.246 213.418 c 430.023 222.293 438.008 243.781 441.551
 259.304 c 445.105 274.82 445.984 269.726 453.977 286.574 c 461.953 303.422
 461.52 296.543 465.719 305.195 c 469.934 313.832 472.16 316.058 474.801
 327.582 c 477.477 339.113 479.469 349.086 473.922 363.066 c 468.375 377.023
 455.973 392.98 442.891 410.715 c 442.457 411.289 442.027 411.879 441.594
 412.48 c 462.156 417.73 482.871 428.367 503.672 447.8 c 529.953 472.367
 548.328 492.789 558.293 508.504 c 560.645 512.203 562.539 515.668 563.992
 518.922 c 566.039 519.894 566.316 521.672 565.809 523.461 c 568.16 530.34
 568.262 536.078 566.086 540.812 c h
496.172 455.84 m 475.461 436.461 455.02 426.48 434.52 422.035 c 422.57 
438.207 409.426 455.925 409.426 455.925 c 421.16 456.601 l 421.16 456.601
 420.73 459.715 422.492 468.797 c 424.273 477.886 421.602 479 421.602 483.425
 c 421.602 487.863 424.93 490.312 427.82 498.933 c 430.699 507.593 432.254
 506.488 434.48 514.019 c 436.691 521.554 440.012 523.765 442.895 533.308
 c 445.777 542.828 446.891 556.136 446.891 565.672 c 446.891 575.195 450.656
 573.652 450.656 573.652 c 454.641 570.324 495.652 539.5 508.066 533.086
 c 520.488 526.644 509.398 531.527 514.266 527.996 c 519.16 524.433 520.484
 521.554 522.922 518.672 c 525.359 515.785 528.02 515.785 530.676 515.347
 c 533.328 514.902 536.895 516.008 539.762 515.347 c 541.711 514.902 545.27
 514.554 549.297 514.777 c 541.555 502.472 526.129 483.832 496.172 455.84
 c h
496.172 455.84 m f
Q Q
showpage
%%Trailer
end restore
%%EOF
